AB1 0AA,terminated,small,385386,801193,1,Scotland,57.101474,-2.242851,AB10AA,AB1 0AA,AB1  0AA,AB,AB1,AB1 0,AB1,0AA
AB1 0AB,terminated,small,385177,801314,1,Scotland,57.102554,-2.246308,AB10AB,AB1 0AB,AB1  0AB,AB,AB1,AB1 0,AB1,0AB
AB1 0AD,terminated,small,385053,801092,1,Scotland,57.100556,-2.248342,AB10AD,AB1 0AD,AB1  0AD,AB,AB1,AB1 0,AB1,0AD
AB1 0AE,terminated,small,384600,799300,8,Scotland,57.084444,-2.255708,AB10AE,AB1 0AE,AB1  0AE,AB,AB1,AB1 0,AB1,0AE
AB1 0AF,terminated,large,384460,800660,8,Scotland,57.096656,-2.258102,AB10AF,AB1 0AF,AB1  0AF,AB,AB1,AB1 0,AB1,0AF